25
Blue;1;2;3;4;5
Green;1;2;3;4;5
Ivory;1;2;3;4;5
Red;1;2;3;4;5
Yellow;1;2;3;4;5
English;1;2;3;4;5
Japanese;1;2;3;4;5
Norwegian;1;2;3;4;5
Spanish;1;2;3;4;5
Ukrainian;1;2;3;4;5
C;1;2;3;4;5
K;1;2;3;4;5
L;1;2;3;4;5
O;1;2;3;4;5
P;1;2;3;4;5
Coffee;1;2;3;4;5
Milk;1;2;3;4;5
Tea;1;2;3;4;5
Juice;1;2;3;4;5
Water;1;2;3;4;5
Dog;1;2;3;4;5
Fox;1;2;3;4;5
Snails;1;2;3;4;5
Horse;1;2;3;4;5
Zebra;1;2;3;4;5
34
eq
Red;English
eq
Spanish;Dog
eq
Coffee;Green
eq
Tea;Ukrainian
eq
K;Yellow
eq
O;Snails
eq
L;Juice
eq
Japanese;P
dif
Blue;Green
dif
Blue;Ivory
dif
Blue;Red;
dif
Blue;Yellow
dif
English;Japanese;
dif
English;Norwegian
dif
English;Spanish
dif
English;Ukrainian
dif
C;K
dif
C;L
dif
C;O
dif
C;P
dif
Coffee;Milk
dif
Coffee;Tea
dif
Coffee;Juice
dif
Coffee;Water
dif
Dog;Fox
dif
Dog;Snails
dif
Dog;Horse
dif
Dog;Zebra
exprbool
Green;Ivory
Ivory==Green+1
exprbool
Milk
Milk==3
exprbool
Norwegian
Norwegian==1
exprbool
Fox;C
C==Fox+1 || C==Fox-1
exprbool
Horse;K
K==Horse+1 || K==Horse-1
exprbool
Blue;Norwegian
(Norwegian==Blue+1) || (Norwegian==Blue-1)